120.005138 14.874801 1
120.070155 14.874801 1
120.070155 14.811801 1
120.005138 14.811801 1
120.005138 14.937801 2
120.070155 14.937801 2
120.070155 14.874801 2
120.005138 14.874801 2
120.005138 15.000801 3
120.070155 15.000801 3
120.070155 14.937801 3
120.005138 14.937801 3
120.005138 15.063801 4
120.070155 15.063801 4
120.070155 15.000801 4
120.005138 15.000801 4
120.070155 13.803800 5
120.135172 13.803800 5
120.135172 13.740800 5
120.070155 13.740800 5
120.070155 13.866800 6
120.135172 13.866800 6
120.135172 13.803800 6
120.070155 13.803800 6
120.070155 13.929800 7
120.135172 13.929800 7
120.135172 13.866800 7
120.070155 13.866800 7
120.070155 14.811801 8
120.135172 14.811801 8
120.135172 14.748801 8
120.070155 14.748801 8
120.070155 14.874801 9
120.135172 14.874801 9
120.135172 14.811801 9
120.070155 14.811801 9
120.135172 13.740800 10
120.200189 13.740800 10
120.200189 13.677800 10
120.135172 13.677800 10
120.135172 13.803800 11
120.200189 13.803800 11
120.200189 13.740800 11
120.135172 13.740800 11
120.135172 13.929800 12
120.200189 13.929800 12
120.200189 13.866800 12
120.135172 13.866800 12
120.135172 14.748801 13
120.200189 14.748801 13
120.200189 14.685801 13
120.135172 14.685801 13
120.135172 14.811801 14
120.200189 14.811801 14
120.200189 14.748801 14
120.135172 14.748801 14
120.200189 13.740800 15
120.265206 13.740800 15
120.265206 13.677800 15
120.200189 13.677800 15
120.200189 13.866800 16
120.265206 13.866800 16
120.265206 13.803800 16
120.200189 13.803800 16
120.200189 13.929800 17
120.265206 13.929800 17
120.265206 13.866800 17
120.200189 13.866800 17
120.200189 14.685801 18
120.265206 14.685801 18
120.265206 14.622801 18
120.200189 14.622801 18
120.200189 14.748801 19
120.265206 14.748801 19
120.265206 14.685801 19
120.200189 14.685801 19
120.265206 13.740800 20
120.330223 13.740800 20
120.330223 13.677800 20
120.265206 13.677800 20
120.265206 13.803800 21
120.330223 13.803800 21
120.330223 13.740800 21
120.265206 13.740800 21
120.265206 13.866800 22
120.330223 13.866800 22
120.330223 13.803800 22
120.265206 13.803800 22
120.265206 13.929800 23
120.330223 13.929800 23
120.330223 13.866800 23
120.265206 13.866800 23
120.265206 14.622801 24
120.330223 14.622801 24
120.330223 14.559801 24
120.265206 14.559801 24
120.265206 14.685801 25
120.330223 14.685801 25
120.330223 14.622801 25
120.265206 14.622801 25
120.330223 13.803800 26
120.395240 13.803800 26
120.395240 13.740800 26
120.330223 13.740800 26
120.330223 13.866800 27
120.395240 13.866800 27
120.395240 13.803800 27
120.330223 13.803800 27
120.330223 13.929800 28
120.395240 13.929800 28
120.395240 13.866800 28
120.330223 13.866800 28
120.330223 14.559801 29
120.395240 14.559801 29
120.395240 14.496801 29
120.330223 14.496801 29
120.330223 14.622801 30
120.395240 14.622801 30
120.395240 14.559801 30
120.330223 14.559801 30
120.395240 13.866800 31
120.460257 13.866800 31
120.460257 13.803800 31
120.395240 13.803800 31
120.395240 13.929800 32
120.460257 13.929800 32
120.460257 13.866800 32
120.395240 13.866800 32
120.395240 14.433801 33
120.460257 14.433801 33
120.460257 14.370801 33
120.395240 14.370801 33
120.395240 14.496801 34
120.460257 14.496801 34
120.460257 14.433801 34
120.395240 14.433801 34
120.395240 14.559801 35
120.460257 14.559801 35
120.460257 14.496801 35
120.395240 14.496801 35
120.460257 14.433801 36
120.525274 14.433801 36
120.525274 14.370801 36
120.460257 14.370801 36
120.460257 14.496801 37
120.525274 14.496801 37
120.525274 14.433801 37
120.460257 14.433801 37
120.525274 14.370801 38
120.590291 14.370801 38
120.590291 14.307801 38
120.525274 14.307801 38
120.525274 14.433801 39
120.590291 14.433801 39
120.590291 14.370801 39
120.525274 14.370801 39
120.525274 14.748801 40
120.590291 14.748801 40
120.590291 14.685801 40
120.525274 14.685801 40
120.525274 14.811801 41
120.590291 14.811801 41
120.590291 14.748801 41
120.525274 14.748801 41
120.525274 14.874801 42
120.590291 14.874801 42
120.590291 14.811801 42
120.525274 14.811801 42
120.590291 13.866800 43
120.655308 13.866800 43
120.655308 13.803800 43
120.590291 13.803800 43
120.590291 13.929800 44
120.655308 13.929800 44
120.655308 13.866800 44
120.590291 13.866800 44
120.590291 13.992800 45
120.655308 13.992800 45
120.655308 13.929800 45
120.590291 13.929800 45
120.590291 14.055800 46
120.655308 14.055800 46
120.655308 13.992800 46
120.590291 13.992800 46
120.590291 14.118800 47
120.655308 14.118800 47
120.655308 14.055800 47
120.590291 14.055800 47
120.590291 14.181800 48
120.655308 14.181800 48
120.655308 14.118800 48
120.590291 14.118800 48
120.590291 14.244800 49
120.655308 14.244800 49
120.655308 14.181800 49
120.590291 14.181800 49
120.590291 14.307801 50
120.655308 14.307801 50
120.655308 14.244800 50
120.590291 14.244800 50
120.590291 14.370801 51
120.655308 14.370801 51
120.655308 14.307801 51
120.590291 14.307801 51
120.590291 14.433801 52
120.655308 14.433801 52
120.655308 14.370801 52
120.590291 14.370801 52
120.590291 14.496801 53
120.655308 14.496801 53
120.655308 14.433801 53
120.590291 14.433801 53
120.590291 14.559801 54
120.655308 14.559801 54
120.655308 14.496801 54
120.590291 14.496801 54
120.590291 14.622801 55
120.655308 14.622801 55
120.655308 14.559801 55
120.590291 14.559801 55
120.590291 14.685801 56
120.655308 14.685801 56
120.655308 14.622801 56
120.590291 14.622801 56
120.590291 14.748801 57
120.655308 14.748801 57
120.655308 14.685801 57
120.590291 14.685801 57
120.590291 14.811801 58
120.655308 14.811801 58
120.655308 14.748801 58
120.590291 14.748801 58
120.590291 14.874801 59
120.655308 14.874801 59
120.655308 14.811801 59
120.590291 14.811801 59
120.655308 13.866800 60
120.720325 13.866800 60
120.720325 13.803800 60
120.655308 13.803800 60
120.655308 13.929800 61
120.720325 13.929800 61
120.720325 13.866800 61
120.655308 13.866800 61
120.655308 14.370801 62
120.720325 14.370801 62
120.720325 14.307801 62
120.655308 14.307801 62
120.655308 14.811801 63
120.720325 14.811801 63
120.720325 14.748801 63
120.655308 14.748801 63
120.720325 13.929800 64
120.785342 13.929800 64
120.785342 13.866800 64
120.720325 13.866800 64
120.720325 14.370801 65
120.785342 14.370801 65
120.785342 14.307801 65
120.720325 14.307801 65
120.720325 14.811801 66
120.785342 14.811801 66
120.785342 14.748801 66
120.720325 14.748801 66
120.785342 13.929800 67
120.850359 13.929800 67
120.850359 13.866800 67
120.785342 13.866800 67
120.785342 14.370801 68
120.850359 14.370801 68
120.850359 14.307801 68
120.785342 14.307801 68
120.785342 14.433801 69
120.850359 14.433801 69
120.850359 14.370801 69
120.785342 14.370801 69
120.785342 14.496801 70
120.850359 14.496801 70
120.850359 14.433801 70
120.785342 14.433801 70
120.785342 14.748801 71
120.850359 14.748801 71
120.850359 14.685801 71
120.785342 14.685801 71
120.785342 14.811801 72
120.850359 14.811801 72
120.850359 14.748801 72
120.785342 14.748801 72
120.850359 13.803800 73
120.915375 13.803800 73
120.915375 13.740800 73
120.850359 13.740800 73
120.850359 13.866800 74
120.915375 13.866800 74
120.915375 13.803800 74
120.850359 13.803800 74
120.850359 13.929800 75
120.915375 13.929800 75
120.915375 13.866800 75
120.850359 13.866800 75
120.850359 14.496801 76
120.915375 14.496801 76
120.915375 14.433801 76
120.850359 14.433801 76
120.850359 14.559801 77
120.915375 14.559801 77
120.915375 14.496801 77
120.850359 14.496801 77
120.850359 14.748801 78
120.915375 14.748801 78
120.915375 14.685801 78
120.850359 14.685801 78
120.915375 13.803800 79
120.980392 13.803800 79
120.980392 13.740800 79
120.915375 13.740800 79
120.915375 14.559801 80
120.980392 14.559801 80
120.980392 14.496801 80
120.915375 14.496801 80
120.915375 14.622801 81
120.980392 14.622801 81
120.980392 14.559801 81
120.915375 14.559801 81
120.915375 14.685801 82
120.980392 14.685801 82
120.980392 14.622801 82
120.915375 14.622801 82
120.915375 14.748801 83
120.980392 14.748801 83
120.980392 14.685801 83
120.915375 14.685801 83
120.980392 13.677800 84
121.045409 13.677800 84
121.045409 13.614800 84
120.980392 13.614800 84
120.980392 13.740800 85
121.045409 13.740800 85
121.045409 13.677800 85
120.980392 13.677800 85
120.980392 13.803800 86
121.045409 13.803800 86
121.045409 13.740800 86
120.980392 13.740800 86
120.980392 14.559801 87
121.045409 14.559801 87
121.045409 14.496801 87
120.980392 14.496801 87
120.980392 14.622801 88
121.045409 14.622801 88
121.045409 14.559801 88
120.980392 14.559801 88
121.045409 13.677800 89
121.110426 13.677800 89
121.110426 13.614800 89
121.045409 13.614800 89
121.110426 13.677800 90
121.175443 13.677800 90
121.175443 13.614800 90
121.110426 13.614800 90
